(footprint "Samtec_HLE-133-02-xx-DV-PE-LC_2x33_P2.54mm_Horizontal"
	(version 20231014)
	(generator "pcbnew")
	(generator_version "7.99")
	(layer "F.Cu")
	(descr "Samtec HLE .100\" Tiger Beam Cost-effective Single Beam Socket Strip, HLE-133-02-xx-DV-PE-LC, 33 Pins per row (http://suddendocs.samtec.com/prints/hle-1xx-02-xx-dv-xe-xx-mkt.pdf, http://suddendocs.samtec.com/prints/hle-thru.pdf), generated with kicad-footprint-generator")
	(tags "connector Samtec HLE top entry")
	(property "Reference" "REF**"
		(at 40.64 -1.86 0)
		(layer "F.SilkS")
		(uuid "d7d96772-e03a-4426-a0a8-985d2f05395c")
		(effects
			(font
				(size 1 1)
				(thickness 0.15)
			)
		)
	)
	(property "Value" "Samtec_HLE-133-02-xx-DV-PE-LC_2x33_P2.54mm_Horizontal"
		(at 40.64 9.48 0)
		(layer "F.Fab")
		(uuid "49601f37-d091-46da-baa9-d689daff8c35")
		(effects
			(font
				(size 1 1)
				(thickness 0.15)
			)
		)
	)
	(property "Footprint" ""
		(at 0 0 0)
		(unlocked yes)
		(layer "F.Fab")
		(hide yes)
		(uuid "ff94169b-f250-42d4-930f-7219680349ee")
		(effects
			(font
				(size 1.27 1.27)
			)
		)
	)
	(property "Datasheet" ""
		(at 0 0 0)
		(unlocked yes)
		(layer "F.Fab")
		(hide yes)
		(uuid "acd21faa-5721-4ade-85d5-942cb34c84ed")
		(effects
			(font
				(size 1.27 1.27)
			)
		)
	)
	(property "Description" ""
		(at 0 0 0)
		(unlocked yes)
		(layer "F.Fab")
		(hide yes)
		(uuid "6148024c-f26b-4a66-bcac-2beade119a8f")
		(effects
			(font
				(size 1.27 1.27)
			)
		)
	)
	(attr through_hole)
	(fp_line
		(start -1.38 1.16)
		(end 82.66 1.16)
		(stroke
			(width 0.12)
			(type solid)
		)
		(layer "F.SilkS")
		(uuid "7c52bc78-22a8-4160-a603-33cc9d686e57")
	)
	(fp_line
		(start -1.38 6.46)
		(end -1.38 1.16)
		(stroke
			(width 0.12)
			(type solid)
		)
		(layer "F.SilkS")
		(uuid "fbef2b56-80f7-4605-99f5-a37b8da50187")
	)
	(fp_line
		(start 82.66 1.16)
		(end 82.66 6.46)
		(stroke
			(width 0.12)
			(type solid)
		)
		(layer "F.SilkS")
		(uuid "dd12b657-377e-4b89-bee8-e58271582db2")
	)
	(fp_line
		(start 82.66 6.46)
		(end -1.38 6.46)
		(stroke
			(width 0.12)
			(type solid)
		)
		(layer "F.SilkS")
		(uuid "fbd9cf3d-8f1f-459c-abb5-e3d3de1c39a3")
	)
	(fp_line
		(start -1.77 -1.16)
		(end 83.05 -1.16)
		(stroke
			(width 0.05)
			(type solid)
		)
		(layer "F.CrtYd")
		(uuid "12290ceb-f967-4d28-9567-065b15276b3a")
	)
	(fp_line
		(start -1.77 8.78)
		(end -1.77 -1.16)
		(stroke
			(width 0.05)
			(type solid)
		)
		(layer "F.CrtYd")
		(uuid "f82c492d-353a-47ba-9fd1-5c0b783ec3cb")
	)
	(fp_line
		(start 83.05 -1.16)
		(end 83.05 8.78)
		(stroke
			(width 0.05)
			(type solid)
		)
		(layer "F.CrtYd")
		(uuid "3c1ab95e-f889-4fd4-863c-e1296f32e502")
	)
	(fp_line
		(start 83.05 8.78)
		(end -1.77 8.78)
		(stroke
			(width 0.05)
			(type solid)
		)
		(layer "F.CrtYd")
		(uuid "54384746-dd3a-4635-857e-0377998f000e")
	)
	(fp_line
		(start -1.27 1.27)
		(end 82.55 1.27)
		(stroke
			(width 0.1)
			(type solid)
		)
		(layer "F.Fab")
		(uuid "14bee1a7-a2f2-4279-a1bf-e9802a7f7909")
	)
	(fp_line
		(start -1.27 6.35)
		(end -1.27 1.27)
		(stroke
			(width 0.1)
			(type solid)
		)
		(layer "F.Fab")
		(uuid "95ddeebf-9bab-407a-b5b9-6eb6a4364fc5")
	)
	(fp_line
		(start -0.5 1.27)
		(end 0 1.977107)
		(stroke
			(width 0.1)
			(type solid)
		)
		(layer "F.Fab")
		(uuid "a000f61b-ed9a-436e-aa02-b24dd3a256e9")
	)
	(fp_line
		(start 0 1.977107)
		(end 0.5 1.27)
		(stroke
			(width 0.1)
			(type solid)
		)
		(layer "F.Fab")
		(uuid "3554cb0a-6e1e-4950-9160-ff8ba06fda09")
	)
	(fp_line
		(start 82.55 1.27)
		(end 82.55 6.35)
		(stroke
			(width 0.1)
			(type solid)
		)
		(layer "F.Fab")
		(uuid "cc5e1b5c-5b92-411e-a937-319a3cf22a06")
	)
	(fp_line
		(start 82.55 6.35)
		(end -1.27 6.35)
		(stroke
			(width 0.1)
			(type solid)
		)
		(layer "F.Fab")
		(uuid "065f55ce-844c-4408-9024-73db5bc819b2")
	)
	(fp_text user "${REFERENCE}"
		(at 40.64 5.65 0)
		(layer "F.Fab")
		(uuid "e5e30624-f8f1-4b8a-98e8-30f283a79f6d")
		(effects
			(font
				(size 1 1)
				(thickness 0.15)
			)
		)
	)
	(pad "" np_thru_hole circle
		(at 0 2.54)
		(size 1.4 1.4)
		(drill 1.4)
		(layers "*.Cu" "*.Mask")
		(uuid "8f16bc69-7845-49c0-88e9-d7c2e263e0c7")
	)
	(pad "" np_thru_hole circle
		(at 0 5.08)
		(size 1.4 1.4)
		(drill 1.4)
		(layers "*.Cu" "*.Mask")
		(uuid "d5042c78-66bd-404a-be0d-7f7fa9b05add")
	)
	(pad "" np_thru_hole circle
		(at 1.27 3.81)
		(size 1.19 1.19)
		(drill 1.19)
		(layers "*.Cu" "*.Mask")
		(uuid "afe9b455-c277-432a-84d8-ea417f498c0b")
	)
	(pad "" np_thru_hole circle
		(at 2.54 2.54)
		(size 1.4 1.4)
		(drill 1.4)
		(layers "*.Cu" "*.Mask")
		(uuid "bb1d5ee5-121e-4207-8709-3f80bd03f00e")
	)
	(pad "" np_thru_hole circle
		(at 2.54 5.08)
		(size 1.4 1.4)
		(drill 1.4)
		(layers "*.Cu" "*.Mask")
		(uuid "d88b3e8b-5e63-45e1-a81d-6d3d0c1f3620")
	)
	(pad "" np_thru_hole circle
		(at 5.08 2.54)
		(size 1.4 1.4)
		(drill 1.4)
		(layers "*.Cu" "*.Mask")
		(uuid "6f20b1ed-9b05-436c-8742-b48b3543e65a")
	)
	(pad "" np_thru_hole circle
		(at 5.08 5.08)
		(size 1.4 1.4)
		(drill 1.4)
		(layers "*.Cu" "*.Mask")
		(uuid "6321709d-d5dd-44bc-8336-016ddfddecf7")
	)
	(pad "" np_thru_hole circle
		(at 7.62 2.54)
		(size 1.4 1.4)
		(drill 1.4)
		(layers "*.Cu" "*.Mask")
		(uuid "296066e0-062b-4ac0-945d-6e66f97b36f6")
	)
	(pad "" np_thru_hole circle
		(at 7.62 5.08)
		(size 1.4 1.4)
		(drill 1.4)
		(layers "*.Cu" "*.Mask")
		(uuid "31b9876d-b6ea-44e2-aae9-b607534c1621")
	)
	(pad "" np_thru_hole circle
		(at 10.16 2.54)
		(size 1.4 1.4)
		(drill 1.4)
		(layers "*.Cu" "*.Mask")
		(uuid "cd21dd18-1295-47be-b86d-90db42597662")
	)
	(pad "" np_thru_hole circle
		(at 10.16 5.08)
		(size 1.4 1.4)
		(drill 1.4)
		(layers "*.Cu" "*.Mask")
		(uuid "2b639b25-69d0-4d30-b969-867f6d773dd5")
	)
	(pad "" np_thru_hole circle
		(at 12.7 2.54)
		(size 1.4 1.4)
		(drill 1.4)
		(layers "*.Cu" "*.Mask")
		(uuid "a80fa169-ac58-4655-8615-10acddacb88a")
	)
	(pad "" np_thru_hole circle
		(at 12.7 5.08)
		(size 1.4 1.4)
		(drill 1.4)
		(layers "*.Cu" "*.Mask")
		(uuid "9297ad19-a021-431e-b112-df6739784200")
	)
	(pad "" np_thru_hole circle
		(at 15.24 2.54)
		(size 1.4 1.4)
		(drill 1.4)
		(layers "*.Cu" "*.Mask")
		(uuid "ba2c4e03-466a-4ea3-a42a-d3cdd279e348")
	)
	(pad "" np_thru_hole circle
		(at 15.24 5.08)
		(size 1.4 1.4)
		(drill 1.4)
		(layers "*.Cu" "*.Mask")
		(uuid "43bea87a-eb6c-4819-b09e-fecc6a333344")
	)
	(pad "" np_thru_hole circle
		(at 17.78 2.54)
		(size 1.4 1.4)
		(drill 1.4)
		(layers "*.Cu" "*.Mask")
		(uuid "9808d94d-ec13-4ae8-93cd-50febc47747d")
	)
	(pad "" np_thru_hole circle
		(at 17.78 5.08)
		(size 1.4 1.4)
		(drill 1.4)
		(layers "*.Cu" "*.Mask")
		(uuid "5bba70ac-5b67-4a67-b3b0-bf3801d4d68a")
	)
	(pad "" np_thru_hole circle
		(at 20.32 2.54)
		(size 1.4 1.4)
		(drill 1.4)
		(layers "*.Cu" "*.Mask")
		(uuid "59757ede-45bd-4464-a0d3-47fe600311a7")
	)
	(pad "" np_thru_hole circle
		(at 20.32 5.08)
		(size 1.4 1.4)
		(drill 1.4)
		(layers "*.Cu" "*.Mask")
		(uuid "14c8ee3b-8b76-4b9f-b3a4-d318aefbe7ac")
	)
	(pad "" np_thru_hole circle
		(at 22.86 2.54)
		(size 1.4 1.4)
		(drill 1.4)
		(layers "*.Cu" "*.Mask")
		(uuid "dd72446b-c34d-480e-b8f6-ca347f075610")
	)
	(pad "" np_thru_hole circle
		(at 22.86 5.08)
		(size 1.4 1.4)
		(drill 1.4)
		(layers "*.Cu" "*.Mask")
		(uuid "e3201589-6a0d-4066-8df3-263da096020d")
	)
	(pad "" np_thru_hole circle
		(at 25.4 2.54)
		(size 1.4 1.4)
		(drill 1.4)
		(layers "*.Cu" "*.Mask")
		(uuid "c67b8aad-dbc5-4fcf-918e-cb7c31b08d6a")
	)
	(pad "" np_thru_hole circle
		(at 25.4 5.08)
		(size 1.4 1.4)
		(drill 1.4)
		(layers "*.Cu" "*.Mask")
		(uuid "34ca49ce-5601-4de2-99c4-b63dfd5022db")
	)
	(pad "" np_thru_hole circle
		(at 27.94 2.54)
		(size 1.4 1.4)
		(drill 1.4)
		(layers "*.Cu" "*.Mask")
		(uuid "7ac7a742-6b0d-4d9c-8800-1665c8ccef9d")
	)
	(pad "" np_thru_hole circle
		(at 27.94 5.08)
		(size 1.4 1.4)
		(drill 1.4)
		(layers "*.Cu" "*.Mask")
		(uuid "a031bed1-9fee-4bb6-b413-cc01734ec2d5")
	)
	(pad "" np_thru_hole circle
		(at 30.48 2.54)
		(size 1.4 1.4)
		(drill 1.4)
		(layers "*.Cu" "*.Mask")
		(uuid "50a2792a-4354-4554-ab66-6df638449c77")
	)
	(pad "" np_thru_hole circle
		(at 30.48 5.08)
		(size 1.4 1.4)
		(drill 1.4)
		(layers "*.Cu" "*.Mask")
		(uuid "bef71df3-6ec9-443a-b1e4-db0db1223402")
	)
	(pad "" np_thru_hole circle
		(at 33.02 2.54)
		(size 1.4 1.4)
		(drill 1.4)
		(layers "*.Cu" "*.Mask")
		(uuid "4f7cb693-9d03-430d-bba4-95971682c7ca")
	)
	(pad "" np_thru_hole circle
		(at 33.02 5.08)
		(size 1.4 1.4)
		(drill 1.4)
		(layers "*.Cu" "*.Mask")
		(uuid "8990046c-26cd-43be-b225-589180054b77")
	)
	(pad "" np_thru_hole circle
		(at 35.56 2.54)
		(size 1.4 1.4)
		(drill 1.4)
		(layers "*.Cu" "*.Mask")
		(uuid "1fa2347a-1391-4070-a3df-7c1f3da58db4")
	)
	(pad "" np_thru_hole circle
		(at 35.56 5.08)
		(size 1.4 1.4)
		(drill 1.4)
		(layers "*.Cu" "*.Mask")
		(uuid "8dc6af26-eb38-4834-bbb6-17ae16c19282")
	)
	(pad "" np_thru_hole circle
		(at 38.1 2.54)
		(size 1.4 1.4)
		(drill 1.4)
		(layers "*.Cu" "*.Mask")
		(uuid "dad259c0-d67f-4b90-8a05-c51f7eba2251")
	)
	(pad "" np_thru_hole circle
		(at 38.1 5.08)
		(size 1.4 1.4)
		(drill 1.4)
		(layers "*.Cu" "*.Mask")
		(uuid "c766b845-282f-4b7b-9acb-d6510994724f")
	)
	(pad "" np_thru_hole circle
		(at 40.64 2.54)
		(size 1.4 1.4)
		(drill 1.4)
		(layers "*.Cu" "*.Mask")
		(uuid "133cff93-d897-4ef2-a02d-ef4db90a5ef1")
	)
	(pad "" np_thru_hole circle
		(at 40.64 5.08)
		(size 1.4 1.4)
		(drill 1.4)
		(layers "*.Cu" "*.Mask")
		(uuid "bc05f5f6-bfff-4fb2-ba92-80d19028c8bc")
	)
	(pad "" np_thru_hole circle
		(at 43.18 2.54)
		(size 1.4 1.4)
		(drill 1.4)
		(layers "*.Cu" "*.Mask")
		(uuid "f80160ce-cb2a-454a-adc5-7816abaa9108")
	)
	(pad "" np_thru_hole circle
		(at 43.18 5.08)
		(size 1.4 1.4)
		(drill 1.4)
		(layers "*.Cu" "*.Mask")
		(uuid "0fbf22c8-ec1f-4482-9674-0257dd15a5e0")
	)
	(pad "" np_thru_hole circle
		(at 45.72 2.54)
		(size 1.4 1.4)
		(drill 1.4)
		(layers "*.Cu" "*.Mask")
		(uuid "aeb9ab33-9f38-4848-912f-c3ee3f1ffa1c")
	)
	(pad "" np_thru_hole circle
		(at 45.72 5.08)
		(size 1.4 1.4)
		(drill 1.4)
		(layers "*.Cu" "*.Mask")
		(uuid "cf373623-2971-4096-a381-a6509dd4bc7f")
	)
	(pad "" np_thru_hole circle
		(at 48.26 2.54)
		(size 1.4 1.4)
		(drill 1.4)
		(layers "*.Cu" "*.Mask")
		(uuid "daabd1db-aff2-4ec5-a3a5-81960ceeb397")
	)
	(pad "" np_thru_hole circle
		(at 48.26 5.08)
		(size 1.4 1.4)
		(drill 1.4)
		(layers "*.Cu" "*.Mask")
		(uuid "c55b878d-f23d-4193-8c81-c1245f24c824")
	)
	(pad "" np_thru_hole circle
		(at 50.8 2.54)
		(size 1.4 1.4)
		(drill 1.4)
		(layers "*.Cu" "*.Mask")
		(uuid "aa865054-8d40-4751-8325-0d42cdb03dbe")
	)
	(pad "" np_thru_hole circle
		(at 50.8 5.08)
		(size 1.4 1.4)
		(drill 1.4)
		(layers "*.Cu" "*.Mask")
		(uuid "34c859e3-5398-4108-a80e-343896292e92")
	)
	(pad "" np_thru_hole circle
		(at 53.34 2.54)
		(size 1.4 1.4)
		(drill 1.4)
		(layers "*.Cu" "*.Mask")
		(uuid "2f847875-79bd-4c89-844a-cdb66b8ff290")
	)
	(pad "" np_thru_hole circle
		(at 53.34 5.08)
		(size 1.4 1.4)
		(drill 1.4)
		(layers "*.Cu" "*.Mask")
		(uuid "2c424d71-1f4a-445c-a1a0-d00037fa2bad")
	)
	(pad "" np_thru_hole circle
		(at 55.88 2.54)
		(size 1.4 1.4)
		(drill 1.4)
		(layers "*.Cu" "*.Mask")
		(uuid "ac96b551-2930-4655-8dec-1e6211fa854d")
	)
	(pad "" np_thru_hole circle
		(at 55.88 5.08)
		(size 1.4 1.4)
		(drill 1.4)
		(layers "*.Cu" "*.Mask")
		(uuid "967327f1-ae84-47a8-bdfc-e8927af9e06d")
	)
	(pad "" np_thru_hole circle
		(at 58.42 2.54)
		(size 1.4 1.4)
		(drill 1.4)
		(layers "*.Cu" "*.Mask")
		(uuid "c813aa2e-9df4-43ac-8f42-3a579310ccd1")
	)
	(pad "" np_thru_hole circle
		(at 58.42 5.08)
		(size 1.4 1.4)
		(drill 1.4)
		(layers "*.Cu" "*.Mask")
		(uuid "1b7f66e0-3db9-48a7-af48-b304fb572015")
	)
	(pad "" np_thru_hole circle
		(at 60.96 2.54)
		(size 1.4 1.4)
		(drill 1.4)
		(layers "*.Cu" "*.Mask")
		(uuid "a16842ee-545a-4260-b242-896eb09f9536")
	)
	(pad "" np_thru_hole circle
		(at 60.96 5.08)
		(size 1.4 1.4)
		(drill 1.4)
		(layers "*.Cu" "*.Mask")
		(uuid "a8bf5f7f-19f0-4b93-ae9d-7bb67945db2b")
	)
	(pad "" np_thru_hole circle
		(at 63.5 2.54)
		(size 1.4 1.4)
		(drill 1.4)
		(layers "*.Cu" "*.Mask")
		(uuid "0d96cc9d-bc64-4e7e-8986-c22215d8ebb9")
	)
	(pad "" np_thru_hole circle
		(at 63.5 5.08)
		(size 1.4 1.4)
		(drill 1.4)
		(layers "*.Cu" "*.Mask")
		(uuid "224ebe9d-5bd1-4bfa-bcb7-f4d52cfe96f6")
	)
	(pad "" np_thru_hole circle
		(at 66.04 2.54)
		(size 1.4 1.4)
		(drill 1.4)
		(layers "*.Cu" "*.Mask")
		(uuid "ba7f5023-b307-4cbf-974b-e1261c8da38b")
	)
	(pad "" np_thru_hole circle
		(at 66.04 5.08)
		(size 1.4 1.4)
		(drill 1.4)
		(layers "*.Cu" "*.Mask")
		(uuid "e3429a31-5b89-4a55-b6ff-1bed45701683")
	)
	(pad "" np_thru_hole circle
		(at 68.58 2.54)
		(size 1.4 1.4)
		(drill 1.4)
		(layers "*.Cu" "*.Mask")
		(uuid "11759f81-e03f-40ae-afb9-bc2e0ed0834d")
	)
	(pad "" np_thru_hole circle
		(at 68.58 5.08)
		(size 1.4 1.4)
		(drill 1.4)
		(layers "*.Cu" "*.Mask")
		(uuid "19e19364-6dc7-4f25-8fe9-add9e652c494")
	)
	(pad "" np_thru_hole circle
		(at 71.12 2.54)
		(size 1.4 1.4)
		(drill 1.4)
		(layers "*.Cu" "*.Mask")
		(uuid "6011d677-5074-4b9f-830a-d6a51f84b5db")
	)
	(pad "" np_thru_hole circle
		(at 71.12 5.08)
		(size 1.4 1.4)
		(drill 1.4)
		(layers "*.Cu" "*.Mask")
		(uuid "354270ad-a714-487b-ad47-49db09e3b026")
	)
	(pad "" np_thru_hole circle
		(at 73.66 2.54)
		(size 1.4 1.4)
		(drill 1.4)
		(layers "*.Cu" "*.Mask")
		(uuid "0d7c6bc2-e2fb-4733-8969-438c5e923c9d")
	)
	(pad "" np_thru_hole circle
		(at 73.66 5.08)
		(size 1.4 1.4)
		(drill 1.4)
		(layers "*.Cu" "*.Mask")
		(uuid "6b37256e-9923-42ad-a47c-08daef08b341")
	)
	(pad "" np_thru_hole circle
		(at 76.2 2.54)
		(size 1.4 1.4)
		(drill 1.4)
		(layers "*.Cu" "*.Mask")
		(uuid "a522f41e-5f7a-4bb1-9ab9-c1ce30e48132")
	)
	(pad "" np_thru_hole circle
		(at 76.2 5.08)
		(size 1.4 1.4)
		(drill 1.4)
		(layers "*.Cu" "*.Mask")
		(uuid "f49577f8-e6eb-4dd7-ad28-2e8b5a3c67e5")
	)
	(pad "" np_thru_hole circle
		(at 78.74 2.54)
		(size 1.4 1.4)
		(drill 1.4)
		(layers "*.Cu" "*.Mask")
		(uuid "dfd0d2c0-0c92-46c1-9c37-945111e1dbf6")
	)
	(pad "" np_thru_hole circle
		(at 78.74 5.08)
		(size 1.4 1.4)
		(drill 1.4)
		(layers "*.Cu" "*.Mask")
		(uuid "9cd36a56-e7fe-4314-9b0c-41f789aae5bc")
	)
	(pad "" np_thru_hole circle
		(at 80.01 3.81)
		(size 1.19 1.19)
		(drill 1.19)
		(layers "*.Cu" "*.Mask")
		(uuid "533817fa-41cd-44f4-9f2d-4dc00136c466")
	)
	(pad "" np_thru_hole circle
		(at 81.28 2.54)
		(size 1.4 1.4)
		(drill 1.4)
		(layers "*.Cu" "*.Mask")
		(uuid "7e81ff61-e3bd-422a-aa1b-03c38a1d40fe")
	)
	(pad "" np_thru_hole circle
		(at 81.28 5.08)
		(size 1.4 1.4)
		(drill 1.4)
		(layers "*.Cu" "*.Mask")
		(uuid "73107856-1c13-4696-aa6e-2294bb4379e4")
	)
	(pad "1" thru_hole roundrect
		(at 0 0)
		(size 1.31 1.31)
		(drill 0.71)
		(layers "*.Cu" "*.Mask")
		(remove_unused_layers no)
		(roundrect_rratio 0.19084)
		(uuid "eb905d9b-fb23-417e-aed1-5e77d65a8f0a")
	)
	(pad "2" thru_hole circle
		(at 0 7.62)
		(size 1.31 1.31)
		(drill 0.71)
		(layers "*.Cu" "*.Mask")
		(remove_unused_layers no)
		(uuid "a8783e7c-fbdd-458b-ac0f-55a43947e706")
	)
	(pad "3" thru_hole circle
		(at 2.54 0)
		(size 1.31 1.31)
		(drill 0.71)
		(layers "*.Cu" "*.Mask")
		(remove_unused_layers no)
		(uuid "d3bcec23-1169-4547-a92d-fe13b7038017")
	)
	(pad "4" thru_hole circle
		(at 2.54 7.62)
		(size 1.31 1.31)
		(drill 0.71)
		(layers "*.Cu" "*.Mask")
		(remove_unused_layers no)
		(uuid "86912d70-ff38-40c6-bd6e-96ddb80e8ebf")
	)
	(pad "5" thru_hole circle
		(at 5.08 0)
		(size 1.31 1.31)
		(drill 0.71)
		(layers "*.Cu" "*.Mask")
		(remove_unused_layers no)
		(uuid "7debb537-09ec-473d-a3a6-87595821e326")
	)
	(pad "6" thru_hole circle
		(at 5.08 7.62)
		(size 1.31 1.31)
		(drill 0.71)
		(layers "*.Cu" "*.Mask")
		(remove_unused_layers no)
		(uuid "11266bac-2d64-4bda-8a4e-190a5f23e934")
	)
	(pad "7" thru_hole circle
		(at 7.62 0)
		(size 1.31 1.31)
		(drill 0.71)
		(layers "*.Cu" "*.Mask")
		(remove_unused_layers no)
		(uuid "4ba10efc-419f-4c6f-bd53-7211c19fb882")
	)
	(pad "8" thru_hole circle
		(at 7.62 7.62)
		(size 1.31 1.31)
		(drill 0.71)
		(layers "*.Cu" "*.Mask")
		(remove_unused_layers no)
		(uuid "fffb81dd-f81f-4466-866d-74737568d8c8")
	)
	(pad "9" thru_hole circle
		(at 10.16 0)
		(size 1.31 1.31)
		(drill 0.71)
		(layers "*.Cu" "*.Mask")
		(remove_unused_layers no)
		(uuid "cbb84cfa-afee-46dd-9cf0-2f6225968284")
	)
	(pad "10" thru_hole circle
		(at 10.16 7.62)
		(size 1.31 1.31)
		(drill 0.71)
		(layers "*.Cu" "*.Mask")
		(remove_unused_layers no)
		(uuid "9f990f67-b097-4a20-8060-6190da035240")
	)
	(pad "11" thru_hole circle
		(at 12.7 0)
		(size 1.31 1.31)
		(drill 0.71)
		(layers "*.Cu" "*.Mask")
		(remove_unused_layers no)
		(uuid "4798d74b-24e7-437d-868c-12d2da2c4bf8")
	)
	(pad "12" thru_hole circle
		(at 12.7 7.62)
		(size 1.31 1.31)
		(drill 0.71)
		(layers "*.Cu" "*.Mask")
		(remove_unused_layers no)
		(uuid "0d5bc052-c507-4b41-9875-83aa97581dc6")
	)
	(pad "13" thru_hole circle
		(at 15.24 0)
		(size 1.31 1.31)
		(drill 0.71)
		(layers "*.Cu" "*.Mask")
		(remove_unused_layers no)
		(uuid "a8218fa1-cfe3-44e4-8d58-4b14445a2213")
	)
	(pad "14" thru_hole circle
		(at 15.24 7.62)
		(size 1.31 1.31)
		(drill 0.71)
		(layers "*.Cu" "*.Mask")
		(remove_unused_layers no)
		(uuid "cf1bf178-839d-4c1e-a104-d1d7a3406f23")
	)
	(pad "15" thru_hole circle
		(at 17.78 0)
		(size 1.31 1.31)
		(drill 0.71)
		(layers "*.Cu" "*.Mask")
		(remove_unused_layers no)
		(uuid "dbdf99b3-6e39-4792-aa64-192a0e6fe497")
	)
	(pad "16" thru_hole circle
		(at 17.78 7.62)
		(size 1.31 1.31)
		(drill 0.71)
		(layers "*.Cu" "*.Mask")
		(remove_unused_layers no)
		(uuid "98532ba0-346e-4475-ab07-50c04a090b3b")
	)
	(pad "17" thru_hole circle
		(at 20.32 0)
		(size 1.31 1.31)
		(drill 0.71)
		(layers "*.Cu" "*.Mask")
		(remove_unused_layers no)
		(uuid "2cc1974f-34a9-4967-8d50-d2a9c1d92145")
	)
	(pad "18" thru_hole circle
		(at 20.32 7.62)
		(size 1.31 1.31)
		(drill 0.71)
		(layers "*.Cu" "*.Mask")
		(remove_unused_layers no)
		(uuid "64d472bd-bc46-4958-9853-ecb2eb82bf42")
	)
	(pad "19" thru_hole circle
		(at 22.86 0)
		(size 1.31 1.31)
		(drill 0.71)
		(layers "*.Cu" "*.Mask")
		(remove_unused_layers no)
		(uuid "273647c2-b84e-4567-8e45-28a07ea63e52")
	)
	(pad "20" thru_hole circle
		(at 22.86 7.62)
		(size 1.31 1.31)
		(drill 0.71)
		(layers "*.Cu" "*.Mask")
		(remove_unused_layers no)
		(uuid "3923c84d-6735-4282-9f6c-0b0b997468b2")
	)
	(pad "21" thru_hole circle
		(at 25.4 0)
		(size 1.31 1.31)
		(drill 0.71)
		(layers "*.Cu" "*.Mask")
		(remove_unused_layers no)
		(uuid "f36a27ef-5d16-444c-b350-b9492737c564")
	)
	(pad "22" thru_hole circle
		(at 25.4 7.62)
		(size 1.31 1.31)
		(drill 0.71)
		(layers "*.Cu" "*.Mask")
		(remove_unused_layers no)
		(uuid "f3746ab3-2b45-499f-872a-403dbef0f687")
	)
	(pad "23" thru_hole circle
		(at 27.94 0)
		(size 1.31 1.31)
		(drill 0.71)
		(layers "*.Cu" "*.Mask")
		(remove_unused_layers no)
		(uuid "52d08f1e-a367-4689-85f6-ea7b6fd80d40")
	)
	(pad "24" thru_hole circle
		(at 27.94 7.62)
		(size 1.31 1.31)
		(drill 0.71)
		(layers "*.Cu" "*.Mask")
		(remove_unused_layers no)
		(uuid "84a85a9c-f421-44c4-ab6b-f2489af764d9")
	)
	(pad "25" thru_hole circle
		(at 30.48 0)
		(size 1.31 1.31)
		(drill 0.71)
		(layers "*.Cu" "*.Mask")
		(remove_unused_layers no)
		(uuid "e0e7bac2-a62b-4536-822d-5d01b414350b")
	)
	(pad "26" thru_hole circle
		(at 30.48 7.62)
		(size 1.31 1.31)
		(drill 0.71)
		(layers "*.Cu" "*.Mask")
		(remove_unused_layers no)
		(uuid "deb0aa25-cb90-425a-be8a-608541affcc6")
	)
	(pad "27" thru_hole circle
		(at 33.02 0)
		(size 1.31 1.31)
		(drill 0.71)
		(layers "*.Cu" "*.Mask")
		(remove_unused_layers no)
		(uuid "3bddffb9-73d5-440d-a509-1f351d64db51")
	)
	(pad "28" thru_hole circle
		(at 33.02 7.62)
		(size 1.31 1.31)
		(drill 0.71)
		(layers "*.Cu" "*.Mask")
		(remove_unused_layers no)
		(uuid "b20fd0a3-3dac-47f1-842b-9a26faa7d0b2")
	)
	(pad "29" thru_hole circle
		(at 35.56 0)
		(size 1.31 1.31)
		(drill 0.71)
		(layers "*.Cu" "*.Mask")
		(remove_unused_layers no)
		(uuid "2622f88e-12e2-4b21-b5a3-9ed1b4ffab6f")
	)
	(pad "30" thru_hole circle
		(at 35.56 7.62)
		(size 1.31 1.31)
		(drill 0.71)
		(layers "*.Cu" "*.Mask")
		(remove_unused_layers no)
		(uuid "6fec8402-de11-4446-b3f5-ec6f0f743514")
	)
	(pad "31" thru_hole circle
		(at 38.1 0)
		(size 1.31 1.31)
		(drill 0.71)
		(layers "*.Cu" "*.Mask")
		(remove_unused_layers no)
		(uuid "cb2d7fbb-d78e-4ed9-9f49-3811197dca46")
	)
	(pad "32" thru_hole circle
		(at 38.1 7.62)
		(size 1.31 1.31)
		(drill 0.71)
		(layers "*.Cu" "*.Mask")
		(remove_unused_layers no)
		(uuid "e9fc89a7-6eb1-441c-836f-8b8c7c6f0c1e")
	)
	(pad "33" thru_hole circle
		(at 40.64 0)
		(size 1.31 1.31)
		(drill 0.71)
		(layers "*.Cu" "*.Mask")
		(remove_unused_layers no)
		(uuid "e6b99459-642c-49a5-b36a-e5d52d3ac9b8")
	)
	(pad "34" thru_hole circle
		(at 40.64 7.62)
		(size 1.31 1.31)
		(drill 0.71)
		(layers "*.Cu" "*.Mask")
		(remove_unused_layers no)
		(uuid "83a82a75-b42b-4db7-a29a-ec47be89a6f9")
	)
	(pad "35" thru_hole circle
		(at 43.18 0)
		(size 1.31 1.31)
		(drill 0.71)
		(layers "*.Cu" "*.Mask")
		(remove_unused_layers no)
		(uuid "49e1aeac-00a3-4eb6-bceb-85ec76d2a3ec")
	)
	(pad "36" thru_hole circle
		(at 43.18 7.62)
		(size 1.31 1.31)
		(drill 0.71)
		(layers "*.Cu" "*.Mask")
		(remove_unused_layers no)
		(uuid "741643bf-ad6d-4153-8ef4-b975e915fc09")
	)
	(pad "37" thru_hole circle
		(at 45.72 0)
		(size 1.31 1.31)
		(drill 0.71)
		(layers "*.Cu" "*.Mask")
		(remove_unused_layers no)
		(uuid "2fca8d4e-8855-4758-add0-d8a7f0b26d50")
	)
	(pad "38" thru_hole circle
		(at 45.72 7.62)
		(size 1.31 1.31)
		(drill 0.71)
		(layers "*.Cu" "*.Mask")
		(remove_unused_layers no)
		(uuid "cebb3f2b-6ebf-4c26-a020-6367fee52480")
	)
	(pad "39" thru_hole circle
		(at 48.26 0)
		(size 1.31 1.31)
		(drill 0.71)
		(layers "*.Cu" "*.Mask")
		(remove_unused_layers no)
		(uuid "cc48fa87-f248-4387-bb2d-2ab04371f595")
	)
	(pad "40" thru_hole circle
		(at 48.26 7.62)
		(size 1.31 1.31)
		(drill 0.71)
		(layers "*.Cu" "*.Mask")
		(remove_unused_layers no)
		(uuid "dadbcb8f-536c-4805-8d07-d6221e24e317")
	)
	(pad "41" thru_hole circle
		(at 50.8 0)
		(size 1.31 1.31)
		(drill 0.71)
		(layers "*.Cu" "*.Mask")
		(remove_unused_layers no)
		(uuid "d2a654eb-1ab9-4b7e-80ed-1784a54ffbe1")
	)
	(pad "42" thru_hole circle
		(at 50.8 7.62)
		(size 1.31 1.31)
		(drill 0.71)
		(layers "*.Cu" "*.Mask")
		(remove_unused_layers no)
		(uuid "4ca9961b-c1d2-49c9-a2ec-efa362b9ce5c")
	)
	(pad "43" thru_hole circle
		(at 53.34 0)
		(size 1.31 1.31)
		(drill 0.71)
		(layers "*.Cu" "*.Mask")
		(remove_unused_layers no)
		(uuid "eaaacd5a-73b9-4c11-a363-375329e539ba")
	)
	(pad "44" thru_hole circle
		(at 53.34 7.62)
		(size 1.31 1.31)
		(drill 0.71)
		(layers "*.Cu" "*.Mask")
		(remove_unused_layers no)
		(uuid "cbb5eaf3-5bae-4a39-ab5d-d249f37b45ae")
	)
	(pad "45" thru_hole circle
		(at 55.88 0)
		(size 1.31 1.31)
		(drill 0.71)
		(layers "*.Cu" "*.Mask")
		(remove_unused_layers no)
		(uuid "44d1ad55-c706-420b-b385-672ccdc51c38")
	)
	(pad "46" thru_hole circle
		(at 55.88 7.62)
		(size 1.31 1.31)
		(drill 0.71)
		(layers "*.Cu" "*.Mask")
		(remove_unused_layers no)
		(uuid "828c5215-437d-45c0-a046-cad5a64a4b31")
	)
	(pad "47" thru_hole circle
		(at 58.42 0)
		(size 1.31 1.31)
		(drill 0.71)
		(layers "*.Cu" "*.Mask")
		(remove_unused_layers no)
		(uuid "603d3811-4c3f-41f8-966e-a50a5ddb9b4c")
	)
	(pad "48" thru_hole circle
		(at 58.42 7.62)
		(size 1.31 1.31)
		(drill 0.71)
		(layers "*.Cu" "*.Mask")
		(remove_unused_layers no)
		(uuid "25ff1673-d9d2-4399-829d-1ecb1cb69e82")
	)
	(pad "49" thru_hole circle
		(at 60.96 0)
		(size 1.31 1.31)
		(drill 0.71)
		(layers "*.Cu" "*.Mask")
		(remove_unused_layers no)
		(uuid "24da4615-cb69-46de-abab-7f0f9ef08181")
	)
	(pad "50" thru_hole circle
		(at 60.96 7.62)
		(size 1.31 1.31)
		(drill 0.71)
		(layers "*.Cu" "*.Mask")
		(remove_unused_layers no)
		(uuid "109823aa-8839-4313-9c11-aded6fb82440")
	)
	(pad "51" thru_hole circle
		(at 63.5 0)
		(size 1.31 1.31)
		(drill 0.71)
		(layers "*.Cu" "*.Mask")
		(remove_unused_layers no)
		(uuid "ba799056-ddcb-4b87-b1df-3ebe638b804a")
	)
	(pad "52" thru_hole circle
		(at 63.5 7.62)
		(size 1.31 1.31)
		(drill 0.71)
		(layers "*.Cu" "*.Mask")
		(remove_unused_layers no)
		(uuid "b327cb51-6b79-488f-8159-b66b9e0cb07a")
	)
	(pad "53" thru_hole circle
		(at 66.04 0)
		(size 1.31 1.31)
		(drill 0.71)
		(layers "*.Cu" "*.Mask")
		(remove_unused_layers no)
		(uuid "b6c1e9bf-2b18-454f-915c-22b25985fcfc")
	)
	(pad "54" thru_hole circle
		(at 66.04 7.62)
		(size 1.31 1.31)
		(drill 0.71)
		(layers "*.Cu" "*.Mask")
		(remove_unused_layers no)
		(uuid "1a392732-5bce-4038-914d-478dd68d82b7")
	)
	(pad "55" thru_hole circle
		(at 68.58 0)
		(size 1.31 1.31)
		(drill 0.71)
		(layers "*.Cu" "*.Mask")
		(remove_unused_layers no)
		(uuid "6557e87a-934e-4195-a150-ec48a5ec8cb8")
	)
	(pad "56" thru_hole circle
		(at 68.58 7.62)
		(size 1.31 1.31)
		(drill 0.71)
		(layers "*.Cu" "*.Mask")
		(remove_unused_layers no)
		(uuid "f28bb049-1af4-4001-97df-44fdc3dc5506")
	)
	(pad "57" thru_hole circle
		(at 71.12 0)
		(size 1.31 1.31)
		(drill 0.71)
		(layers "*.Cu" "*.Mask")
		(remove_unused_layers no)
		(uuid "721130f8-4af1-4c16-9727-4d700bcccdb6")
	)
	(pad "58" thru_hole circle
		(at 71.12 7.62)
		(size 1.31 1.31)
		(drill 0.71)
		(layers "*.Cu" "*.Mask")
		(remove_unused_layers no)
		(uuid "6299857f-ec44-4502-af24-07a9d1f48e78")
	)
	(pad "59" thru_hole circle
		(at 73.66 0)
		(size 1.31 1.31)
		(drill 0.71)
		(layers "*.Cu" "*.Mask")
		(remove_unused_layers no)
		(uuid "dfd398b7-ea21-4f59-8bf6-0acb12f6079a")
	)
	(pad "60" thru_hole circle
		(at 73.66 7.62)
		(size 1.31 1.31)
		(drill 0.71)
		(layers "*.Cu" "*.Mask")
		(remove_unused_layers no)
		(uuid "10a92803-d161-41aa-82ac-0f14dd5fafbb")
	)
	(pad "61" thru_hole circle
		(at 76.2 0)
		(size 1.31 1.31)
		(drill 0.71)
		(layers "*.Cu" "*.Mask")
		(remove_unused_layers no)
		(uuid "6b272580-3134-4c41-9f0b-315497112a3e")
	)
	(pad "62" thru_hole circle
		(at 76.2 7.62)
		(size 1.31 1.31)
		(drill 0.71)
		(layers "*.Cu" "*.Mask")
		(remove_unused_layers no)
		(uuid "92b5e425-082b-4278-84ce-18c74f78d407")
	)
	(pad "63" thru_hole circle
		(at 78.74 0)
		(size 1.31 1.31)
		(drill 0.71)
		(layers "*.Cu" "*.Mask")
		(remove_unused_layers no)
		(uuid "6cc1f4ac-970f-4ae4-b4a1-e0a88eb3246c")
	)
	(pad "64" thru_hole circle
		(at 78.74 7.62)
		(size 1.31 1.31)
		(drill 0.71)
		(layers "*.Cu" "*.Mask")
		(remove_unused_layers no)
		(uuid "5c072520-7c05-4fc4-87b6-0871c0cae2e0")
	)
	(pad "65" thru_hole circle
		(at 81.28 0)
		(size 1.31 1.31)
		(drill 0.71)
		(layers "*.Cu" "*.Mask")
		(remove_unused_layers no)
		(uuid "e5a40f41-921f-40a5-804f-48fb8e6f7bd4")
	)
	(pad "66" thru_hole circle
		(at 81.28 7.62)
		(size 1.31 1.31)
		(drill 0.71)
		(layers "*.Cu" "*.Mask")
		(remove_unused_layers no)
		(uuid "e4bfc510-e523-44f8-a3a3-25f0724b565c")
	)
	(model "${KICAD6_3DMODEL_DIR}/Connector_Samtec_HLE_THT.3dshapes/Samtec_HLE-133-02-xx-DV-PE-LC_2x33_P2.54mm_Horizontal.wrl"
		(offset
			(xyz 0 0 0)
		)
		(scale
			(xyz 1 1 1)
		)
		(rotate
			(xyz 0 0 0)
		)
	)
)